{
  "title": {
    "language": "Idioma",
    "searchPassword": "Buscar Contraseña",
    "newUpdateAvailable": "Nueva Actualización Disponible",
    "updateNow": "Actualizar Ahora",
    "later": "Más Tarde",
    "createAccount": "Crear Cuenta",
    "email": "Correo Electrónico",
    "password": "Contraseña",
    "oldPassword": "Contraseña Antigua",
    "newPassword": "Nueva Contraseña",
    "confirmPassword": "Confirmar Contraseña",
    "login": "Iniciar Sesión",
    "logout": "Cerrar Sesión",
    "register": "Registrarse",
    "activate": "Activar",
    "resend": "Reenviar",
    "passwordsStore": "Almacenamiento de Contraseñas",
    "local": "Local",
    "cloud": "Nube",
    "generatePassword": "Generar Contraseña",
    "showLastPassword": "Mostrar Última Contraseña",
    "passwordGenerator": "Generador de Contraseñas",
    "newKey": "Nueva Clave de Encriptación",
    "settings": "Configuración",
    "error": "Error",
    "digits6Code": "Código de 6 Dígitos",
    "loginVerification": "Verificación de Inicio de Sesión",
    "accountActivation": "Activación de Cuenta",
    "accountSecurity": "Seguridad de la Cuenta",
    "changePassword": "Cambiar Contraseña",
    "resetPassword": "Restablecer Contraseña",
    "mfa": "Autenticación de 2 Factores",
    "successful": "Completado Exitosamente",
    "requestResetCode": "Solicitar Código de Restablecimiento",
    "secret": "Código Secreto",
    "copied": "Copiado",
    "confirm2FA": "Confirmación de 2FA",
    "enable2FA": "Habilitar 2FA",
    "enable": "Habilitar",
    "disable": "Deshabilitar",
    "cancel": "Cancelar",
    "googleAuthenticatorApp": "Aplicación Google Authenticator",
    "mfaByEmail": "2FA por Correo Electrónico",
    "resetSuccessfully": "Restablecido Exitosamente",
    "openSettings": "Abrir Configuración",
    "save": "Guardar",
    "proceedWithoutSaving": "Continuar Sin Guardar",
    "show": "Mostrar",
    "hide": "Ocultar",
    "copy": "Copiar",
    "edit": "Editar",
    "delete": "Eliminar",
    "paste": "Pegar",
    "clear": "Borrar",
    "checksum": "Checksum",
    "saveQrCode": "Guardar Código QR",
    "downloadPemFile": "Descargar Archivo PEM",
    "downloadTxtFile": "Descargar Archivo TXT",
    "warning": "Advertencia",
    "clearCachedPassword": "Borrar Contraseñas Locales",
    "encryptPassword": "Encriptar y Guardar Contraseña",
    "addPassword": "Agregar Nueva Contraseña",
    "editPassword": "Editar Contraseña",
    "currentPassword": "Contraseña Actual",
    "service": "Servicio",
    "username": "Nombre de Usuario",
    "encrypt": "Encriptar",
    "others": "OTROS",
    "agree": "Aceptar",
    "passwordLength": "Longitud de la contraseña",
    "specialCharacters": "Caracteres especiales",
    "currentVersion": "Versión actual",
    "howToUse": "Cómo utilizar",
    "yes": "Sí",
    "no": "No",
    "length": "Longitud",
    "defaultMethod": "Predeterminado",
    "sync": "Sincronizar",
    "updateService": "Actualizar servicio",
    "added": "Agregado",
    "removed": "Eliminado",
    "active": "Activo",
    "masterKeys": "Claves maestras",
    "keyName": "Nombre de la clave",
    "keepMeLogin": "Mantener sesión iniciada",
    "passwordDetails": "Detalles de la contraseña",
    "defaultMasterKey": "Clave maestra por defecto",
    "next": "Siguiente",
    "shareApp": "¡Dile a tus amigos!",
    "latestVersion": "Última Versión",
    "deleteAccount": "Eliminar cuenta"
  },
  "info": {
    "emailNotSent": "¿No has recibido un correo electrónico?",
    "codeResent": "El código ha sido reenviado",
    "enterCode": "Ingrese un código de 6 dígitos en el campo de abajo.",
    "mfaSettingHelper": "Habilitar/Deshabilitar autenticación de 2 factores",
    "changePasswordSettingHelper": "Cambiar su contraseña",
    "successfulChangePassword": "La contraseña se ha cambiado correctamente.",
    "forgotPassword": "¿Olvidaste tu contraseña?",
    "noAccount": "¿No tienes una cuenta?",
    "haveAccount": "¿Ya tienes una cuenta?",
    "passwordCopied": "La contraseña se ha copiado al portapapeles.",
    "usernameCopied": "El nombre de usuario se ha copiado al portapapeles.",
    "googleAuthenticatorInstruction": "Abra la aplicación de autenticación de Google y escanee el código QR o ingrese manualmente el código secreto.",
    "googleAuthenticatorAppInfo": "Abra la aplicación de autenticación de Google e ingrese el código de 6 dígitos en el campo de abajo.",
    "disableGoogleAuthenticator": "Deshabilitar Google Authenticator",
    "disableEmailAuthenticator": "Deshabilitar 2FA a través de correo electrónico",
    "mfaLoginWithGoogleAuthApp": "En cada inicio de sesión, debe proporcionar el número secreto de la aplicación Google Authenticator para completar el proceso de inicio de sesión",
    "mfaLoginWithEmail": "En cada inicio de sesión, recibirá un correo electrónico con un número secreto para completar el proceso de inicio de sesión",
    "resetSuccessfullyInfo": "La contraseña se ha restablecido correctamente. Ahora puede iniciar sesión con la nueva contraseña.",
    "pinEnabling": "Para proteger su almacén de contraseñas, habilite un bloqueo de dispositivo y la configuración de huella digital o de reconocimiento facial.",
    "addFirstPassword": "Agregue su primera contraseña",
    "mfaEnabled": "MFA está habilitado",
    "mfaNotEnabled": "MFA no está habilitado",
    "accountSecuritySettingsHelper": "Administre su contraseña y autenticación de dos factores",
    "keepMeLoggedInSettingsHelper": "Las credenciales de inicio de sesión se guardarán localmente y no será necesario iniciar sesión al reiniciar la aplicación",
    "clearPasswordsSettingsHelper": "Esto eliminará PERMANENTEMENTE todas las contraseñas guardadas del almacenamiento del dispositivo.\n¡PRECAUCIÓN: Las contraseñas no se pueden restaurar después de aplicar esta acción!",
    "clearPasswordsWarning": "Todas las contraseñas guardadas se eliminarán permanentemente del almacenamiento.\n¿Está seguro de que desea continuar?",
    "clearPasswordsFeedBack": "Todas las contraseñas guardadas se han eliminado del almacenamiento.",
    "savePasswordLocally": "Guardar contraseña localmente",
    "savePasswordInCloud": "Guardar contraseña en la nube",
    "passwordSaved": "Se ha agregado la nueva contraseña correctamente",
    "passwordRemoved": "La contraseña se ha eliminado correctamente",
    "keyUploadedSuccessfully": "La clave RSA se ha cargado correctamente",
    "includesUppercase": "Incluye letras mayúsculas",
    "includesNumbers": "Incluye números",
    "includesSpecialCharacters": "Incluye caracteres especiales",
    "specialCharactersHint": "Déjelo en blanco para usar el valor predeterminado",
    "exitAppWarning": "Está a punto de salir de Pass Store, ¿está seguro de que desea continuar?",
    "serviceExistsInCloud": "¡Ya existe un servicio con un nombre similar en la nube!",
    "serviceExistsLocally": "¡Ya existe un servicio con un nombre similar en el almacenamiento local!",
    "deleteServiceWarning": "Se eliminarán todos los nombres de usuario y contraseñas de este servicio, ¿está seguro de que desea continuar?",
    "deleteServiceFeedback": "Se ha eliminado el servicio con todos sus nombres de usuario y contraseñas.",
    "emailSentInfoPart1": "Te hemos enviado un correo electrónico a ",
    "emailSentInfoPart2": ". El correo electrónico contiene el código de 6 dígitos. Por favor ingrésalo en el campo de abajo.",
    "emailSenderInfo": "Asegúrate de revisar tu carpeta de correo no deseado o spam.\nEl remitente es ",
    "loginInfo1": "El inicio de sesión te permite almacenar tus contraseñas en ",
    "loginInfo2": " Esto asegurará que tus contraseñas no se pierdan en caso de pérdida de tu dispositivo móvil.",
    "cloudCapital": "LA NUBE.",
    "registerInfo": "Con una cuenta podrás almacenar tus contraseñas en ",
    "termsInfo": "Al crear una cuenta, estás aceptando nuestra\n",
    "privacyPolicy": "Política de privacidad",
    "termsCondition": "Términos y condiciones",
    "and": " y ",
    "keyUsedForFirstTime": "Esta clave se está utilizando por primera vez.\n¿Te gustaría guardarla?",
    "newUpdateAvailableInfo": "Hay una nueva versión de la aplicación disponible. Por favor actualízala ahora.",
    "newMustUpdateAvailableInfo": "Hay una nueva versión de la aplicación disponible. La aplicación debe actualizarse para continuar usándola.",
    "cannotOpenStore": "¡No se puede abrir la tienda de aplicaciones! La aplicación se puede actualizar directamente desde la tienda.",
    "invalidClipboardValue": "¡El valor copiado del portapapeles no es válido!",
    "useOtherMethod": "Usa otro método",
    "syncPasswordInfo": "Se sobrescribirá su almacenamiento local y se sincronizarán las contraseñas con la nube.\n¿Está seguro de que desea continuar?",
    "secretCopied": "El secreto se ha copiado al portapapeles.",
    "deleteAccountWarning": "Su cuenta está programada para ser eliminada permanentemente en 6 meses. Tenga en cuenta que todas las contraseñas guardadas en la nube se eliminarán permanentemente y esta acción no se puede deshacer.\n¿Está seguro de que desea continuar?"
  },
  "error": {
    "invalidEmail": "¡Correo electrónico no válido!",
    "requiredEmail": "¡Se requiere correo electrónico!",
    "invalid6DigitsCode": "¡Código de 6 dígitos no válido!",
    "requiredCode": "¡Se requiere código!",
    "requiredNameAndPassword": "¡Se requieren nombre de usuario y contraseña!",
    "requiredPassword": "¡Se requiere contraseña!",
    "requiredUsername": "¡Se requiere nombre de usuario!",
    "requiredServiceName": "¡Se requiere el nombre del servicio!",
    "requiredConfirmPassword": "¡Se requiere confirmación de contraseña!",
    "weakPassword": "¡La contraseña es débil!",
    "notMatchPassword": "¡La contraseña y su confirmación no coinciden!",
    "wrongLoginCredentials": "¡Las credenciales de inicio de sesión son incorrectas!",
    "wrongRegistrationInput": "¡La entrada de registro es incorrecta!",
    "requiredFileName": "¡Se requiere el nombre del archivo!",
    "noFileAccessPermission": "No se tiene permiso para acceder a esta carpeta",
    "wrongEncryptionKey": "¡La contraseña no se ha cifrado con la clave de cifrado cargada!",
    "existPasswordInCloud": "¡La contraseña ya existe en el almacenamiento en la nube!",
    "existPasswordLocally": "¡La contraseña ya existe en el almacenamiento local!",
    "unableSavingPasswordInCloud": "No pudimos almacenar la contraseña en la nube. Por favor, inténtelo de nuevo.",
    "unableRemovingPasswordFromCloud": "No pudimos eliminar la contraseña de la nube. Por favor, inténtelo de nuevo.",
    "unableSavingServiceInCloud": "No pudimos almacenar el servicio en la nube en este momento. Por favor, inténtelo de nuevo.",
    "unableRemovingServiceFromCloud": "No pudimos eliminar el servicio de la nube. Por favor, inténtelo de nuevo.",
    "incorrectFileFormat": "¡Formato de archivo incorrecto!",
    "keyAlreadyExists": "La clave ya existe",
    "unableParsingKey": "El formato de la clave maestra es inválido y no puede ser analizado!",
    "fileDownloadedSuccessfully" : "El archivo se ha descargado correctamente.",
    "masterKeyInfo": "La clave maestra es un componente crítico utilizado para asegurar tus contraseñas mediante la encriptación y desencriptación.",
    "removeMasterKeyWarning": "Eliminar la clave maestra eliminará permanentemente el acceso a todas las contraseñas encriptadas con ella. No se puede recuperar. Por favor, procede con precaución y asegúrate de tener una copia de seguridad de la clave antes de borrarla.",
    "atLeast": "La contraseña debe tener al menos 12 caracteres",
    "lowercaseLetter": "La contraseña debe tener al menos 1 letra minúscula",
    "uppercaseLetter": "La contraseña debe tener al menos 1 letra mayúscula",
    "numericCharacter": "La contraseña debe tener al menos 1 número",
    "specialCharacter": "La contraseña debe tener al menos 1 carácter especial",
    "unableSavingPasswordInLocalStorage": "¡No pudimos guardar la contraseña en el dispositivo! Por favor, inténtelo nuevamente.",
    "unableRemovingPasswordFromLocalStorage": "¡No pudimos eliminar la contraseña del dispositivo! Por favor, inténtelo nuevamente.",
    "unableSavingServiceInLocalStorage": "¡No pudimos guardar el servicio en el dispositivo! Por favor, inténtelo nuevamente.",
    "unableRemovingServiceFromLocalStorage": "¡No pudimos eliminar el servicio del dispositivo! Por favor, inténtelo nuevamente.",
    "longValue": "¡El texto es demasiado largo!",
    "serverError": "¡Ups! Algo salió mal en el servidor. Por favor, inténtelo nuevamente más tarde.",
    "badRequest": "¡Ups! La solicitud no era válida. Por favor, verifique la información proporcionada.",
    "unauthenticated": "Lo siento, no está autenticado para acceder a este recurso. Por favor, inicie sesión.",
    "unauthorized": "¡Acceso denegado! No tiene los permisos necesarios para realizar esta acción.",
    "notFound": "¡Ups! No se encontró el recurso solicitado.",
    "timeout": "La solicitud tardó demasiado en procesarse. Por favor, inténtelo nuevamente más tarde.",
    "canceledRequest": "La solicitud fue cancelada antes de poder completarse. Por favor, inténtelo nuevamente."
  }
}
