{
  "title": {
    "language": "Langue",
    "searchPassword": "Rechercher un mot de passe",
    "newUpdateAvailable": "Nouvelle mise à jour disponible",
    "updateNow": "Mettre à jour maintenant",
    "later": "Plus tard",
    "createAccount": "Créer un compte",
    "email": "Email",
    "password": "Mot de passe",
    "oldPassword": "Ancien mot de passe",
    "newPassword": "Nouveau mot de passe",
    "confirmPassword": "Confirmer le mot de passe",
    "login": "Se connecter",
    "logout": "Se déconnecter",
    "register": "S'inscrire",
    "activate": "Activer",
    "resend": "Renvoyer",
    "passwordsStore": "Stockage de mots de passe",
    "local": "Local",
    "cloud": "Cloud",
    "generatePassword": "Générer un mot de passe",
    "showLastPassword": "Afficher le dernier mot de passe",
    "passwordGenerator": "Générateur de mot de passe",
    "newKey": "Nouvelle clé de chiffrement",
    "settings": "Paramètres",
    "error": "Erreur",
    "digits6Code": "Code de 6 chiffres",
    "loginVerification": "Vérification de connexion",
    "accountActivation": "Activation du compte",
    "accountSecurity": "Sécurité du compte",
    "changePassword": "Changer de mot de passe",
    "resetPassword": "Réinitialiser le mot de passe",
    "mfa": "Authentification à deux facteurs",
    "successful": "Terminé avec succès",
    "requestResetCode": "Demander un code de réinitialisation",
    "secret": "Code secret",
    "copied": "Copié",
    "confirm2FA": "Confirmation 2FA",
    "enable2FA": "Activer 2FA",
    "enable": "Activer",
    "disable": "Désactiver",
    "cancel": "Annuler",
    "googleAuthenticatorApp": "Application Google Authenticator",
    "mfaByEmail": "2FA par email",
    "resetSuccessfully": "Réinitialisation réussie",
    "openSettings": "Ouvrir les paramètres",
    "save": "Enregistrer",
    "proceedWithoutSaving" : "Continuer sans enregistrer",
    "show": "Afficher",
    "hide": "Masquer",
    "copy": "Copier",
    "edit": "Modifier",
    "delete": "Supprimer",
    "paste": "Coller",
    "clear": "Effacer",
    "checksum": "Somme de contrôle",
    "saveQrCode": "Enregistrer le code QR",
    "downloadPemFile": "Télécharger le fichier PEM",
    "downloadTxtFile": "Télécharger le fichier TXT",
    "warning": "Avertissement",
    "clearCachedPassword": "Effacer les mots de passe locaux",
    "encryptPassword": "Chiffrer et enregistrer le mot de passe",
    "addPassword": "Ajouter un nouveau mot de passe",
    "editPassword": "Modifier le mot de passe",
    "currentPassword": "Mot de passe actuel",
    "service": "Service",
    "username": "Nom d'utilisateur",
    "encrypt": "Chiffrer",
    "others": "AUTRES",
    "agree": "Accepter",
    "passwordLength": "Longueur du mot de passe",
    "specialCharacters": "Caractères spéciaux",
    "currentVersion": "Version actuelle",
    "howToUse": "Comment utiliser",
    "yes": "Oui",
    "no": "Non",
    "length": "Longueur",
    "defaultMethod": "Méthode par défaut",
    "sync": "Synchroniser",
    "updateService": "Mettre à jour le service",
    "added": "Ajouté",
    "removed": "Supprimé",
    "active": "Actif",
    "masterKeys": "Clés principales",
    "keyName": "Nom de la clé",
    "keepMeLogin": "Rester connecté",
    "passwordDetails": "Détails du mot de passe",
    "defaultMasterKey": "Clé principale par défaut",
    "next": "Suivant",
    "shareApp": "Dis à tes amis!",
    "latestVersion": "Dernière Version",
    "deleteAccount": "Supprimer le compte"
  },
  "info": {
    "emailNotSent": "Vous n'avez pas reçu d'email ?",
    "codeResent": "Le code a été renvoyé",
    "enterCode": "Entrez le code à 6 chiffres dans le champ ci-dessous.",
    "mfaSettingHelper": "Activer/Désactiver l'authentification à deux facteurs",
    "changePasswordSettingHelper": "Changer votre mot de passe",
    "successfulChangePassword": "Le mot de passe a été changé avec succès.",
    "forgotPassword": "Mot de passe oublié ?",
    "noAccount": "Vous n'avez pas de compte ?",
    "haveAccount": "Vous avez déjà un compte ?",
    "passwordCopied": "Le mot de passe a été copié dans le presse-papiers.",
    "usernameCopied": "Le nom d'utilisateur a été copié dans le presse-papiers.",
    "googleAuthenticatorInstruction": "Ouvrez l'application Google Authenticator et scannez le code QR ou entrez manuellement le code secret.",
    "googleAuthenticatorAppInfo": "Ouvrez l'application Google Authenticator et entrez le code à 6 chiffres dans le champ ci-dessous.",
    "disableGoogleAuthenticator": "Désactiver Google Authenticator",
    "disableEmailAuthenticator": "Désactiver l'authentification à deux facteurs par e-mail",
    "mfaLoginWithGoogleAuthApp": "À chaque connexion, vous devrez fournir le numéro secret de l'application Google Authenticator pour terminer le processus de connexion.",
    "mfaLoginWithEmail": "À chaque connexion, vous recevrez un e-mail avec un numéro secret pour terminer le processus de connexion.",
    "resetSuccessfullyInfo": "Le mot de passe a été réinitialisé avec succès. Vous pouvez maintenant vous connecter avec le nouveau mot de passe.",
    "pinEnabling": "Pour sécuriser votre stockage de mots de passe, activez un verrouillage de l'appareil et les paramètres d'empreinte digitale ou de reconnaissance faciale.",
    "addFirstPassword": "Ajoutez votre premier mot de passe",
    "mfaEnabled": "L'authentification à deux facteurs est activée",
    "mfaNotEnabled": "L'authentification à deux facteurs n'est pas activée",
    "accountSecuritySettingsHelper": "Gérez votre mot de passe et l'authentification à 2 facteurs",
    "keepMeLoggedInSettingsHelper": "Les identifiants de connexion seront sauvegardés localement et vous n'aurez pas besoin de vous reconnecter après le redémarrage de l'application",
    "clearPasswordsSettingsHelper": "Cela supprimera DÉFINITIVEMENT tous les mots de passe enregistrés de la mémoire du dispositif.\nATTENTION : Les mots de passe ne peuvent pas être restaurés après cette action !",
    "clearPasswordsWarning": "Tous les mots de passe enregistrés seront supprimés de manière permanente de la mémoire.\nÊtes-vous sûr de vouloir continuer ?",
    "clearPasswordsFeedBack": "Tous les mots de passe enregistrés ont été supprimés de la mémoire.",
    "savePasswordLocally": "Enregistrer le mot de passe localement",
    "savePasswordInCloud": "Enregistrer le mot de passe dans le cloud",
    "passwordSaved": "Nouveau mot de passe ajouté avec succès",
    "passwordRemoved": "Mot de passe supprimé avec succès",
    "keyUploadedSuccessfully": "La clé RSA a été téléchargée avec succès",
    "includesUppercase": "Comprend des lettres majuscules",
    "includesNumbers": "Comprend des chiffres",
    "includesSpecialCharacters": "Comprend des caractères spéciaux",
    "specialCharactersHint": "Laissez vide pour utiliser la valeur par défaut",
    "exitAppWarning": "Vous êtes sur le point de quitter Pass Store, êtes-vous sûr de vouloir continuer ?",
    "serviceExistsInCloud": "Un service portant un nom similaire existe déjà dans le cloud !",
    "serviceExistsLocally": "Un service portant un nom similaire existe déjà dans le stockage local !",
    "deleteServiceWarning": "Tous les noms d'utilisateur et mots de passe seront supprimés pour ce service, êtes-vous sûr de vouloir continuer ?",
    "deleteServiceFeedback": "Le service avec tous ses noms d'utilisateur et mots de passe a été supprimé !",
    "emailSentInfoPart1": "Nous vous avons envoyé un e-mail à ",
    "emailSentInfoPart2": ". L'e-mail contient le code à 6 chiffres. Veuillez l'entrer dans le champ ci-dessous.",
    "emailSenderInfo": "Assurez-vous de vérifier votre dossier spam ou indésirable.\nL'expéditeur est ",
    "loginInfo1": "La connexion vous permet de stocker vos mots de passe dans ",
    "loginInfo2": " Cela garantira que vos mots de passe ne seront pas perdus en cas de perte de votre mobile.",
    "cloudCapital": "LE CLOUD.",
    "registerInfo": "Avec un compte, vous pourrez stocker vos mots de passe dans ",
    "termsInfo": "En créant un compte, vous acceptez notre\n",
    "privacyPolicy": "Politique de confidentialité",
    "termsCondition": "Conditions d'utilisation",
    "and": " et ",
    "keyUsedForFirstTime": "Cette clé est utilisée pour la première fois. Souhaitez-vous l'enregistrer ?",
    "newUpdateAvailableInfo": "Une nouvelle version de l'application est disponible. Veuillez la mettre à jour maintenant.",
    "newMustUpdateAvailableInfo": "Une nouvelle version de l'application est disponible. L'application doit être mise à jour pour continuer à l'utiliser.",
    "cannotOpenStore": "Impossible d'ouvrir le magasin d'applications ! L'application peut être mise à jour directement depuis le magasin.",
    "invalidClipboardValue": "La valeur copiée depuis le presse-papiers est invalide!",
    "useOtherMethod": "Utiliser une autre méthode",
    "syncPasswordInfo": "Votre stockage local sera écrasé et synchronisé avec les mots de passe dans le cloud.\nÊtes-vous sûr de vouloir continuer ?",
    "secretCopied": "Le secret a été copié dans le presse-papiers.",
    "deleteAccountWarning": "Votre compte est programmé pour être supprimé définitivement dans 6 mois. Veuillez noter que tous les mots de passe enregistrés dans le cloud seront définitivement supprimés et cette action est irréversible.\nÊtes-vous sûr de vouloir continuer ?"
  },
  "error": {
    "invalidEmail": "Adresse email invalide !",
    "requiredEmail": "Email est requis !",
    "invalid6DigitsCode": "Code à 6 chiffres invalide !",
    "requiredCode": "Code est requis !",
    "requiredNameAndPassword": "Nom d'utilisateur et mot de passe sont requis !",
    "requiredPassword": "Mot de passe est requis !",
    "requiredUsername": "Nom d'utilisateur est requis !",
    "requiredServiceName": "Nom de service est requis !",
    "requiredConfirmPassword": "Confirmation du mot de passe est requis !",
    "weakPassword": "Mot de passe est faible !",
    "notMatchPassword": "Le mot de passe et sa confirmation ne correspondent pas !",
    "wrongLoginCredentials": "Les informations de connexion sont incorrectes !",
    "wrongRegistrationInput": "L'enregistrement est incorrect !",
    "requiredFileName": "Nom de fichier est requis !",
    "noFileAccessPermission": "Pas de permission pour accéder à ce dossier",
    "wrongEncryptionKey": "Le mot de passe n'a pas été chiffré avec la clé de chiffrement téléchargée !",
    "existPasswordInCloud": "Le mot de passe existe déjà dans le stockage cloud !",
    "existPasswordLocally": "Le mot de passe existe déjà dans le stockage local !",
    "unableSavingPasswordInCloud": "Nous n'avons pas pu enregistrer le mot de passe dans le stockage cloud. Veuillez réessayer.",
    "unableRemovingPasswordFromCloud": "Nous n'avons pas pu supprimer le mot de passe du stockage cloud. Veuillez réessayer.",
    "unableSavingServiceInCloud": "Nous n'avons pas pu enregistrer le service dans le stockage cloud pour le moment ! Veuillez réessayer.",
    "unableRemovingServiceFromCloud": "Nous n'avons pas pu supprimer le service du stockage cloud. Veuillez réessayer.",
    "incorrectFileFormat": "Format de fichier incorrect !",
    "keyAlreadyExists": "La clé existe déjà",
    "unableParsingKey": "Le format de la clé principale est invalide et ne peut pas être analysé!",
    "fileDownloadedSuccessfully" : "Le fichier a été téléchargé avec succès.",
    "masterKeyInfo": "La clé principale est un composant critique utilisé pour sécuriser vos mots de passe en les cryptant et les décryptant.",
    "removeMasterKeyWarning": "La suppression de la clé principale supprimera définitivement l'accès à tous les mots de passe qui y sont cryptés. Elle ne peut pas être récupérée. Veuillez procéder avec prudence et assurez-vous d'avoir une sauvegarde de la clé avant la suppression.",
    "atLeast": "Le mot de passe doit avoir au moins 12 caractères.",
    "lowercaseLetter": "Le mot de passe doit comporter au moins 1 lettre minuscule.",
    "uppercaseLetter": "Le mot de passe doit comporter au moins 1 lettre majuscule.",
    "numericCharacter": "Le mot de passe doit comporter au moins 1 chiffre.",
    "specialCharacter": "Le mot de passe doit comporter au moins 1 caractère spécial.",
    "unableSavingPasswordInLocalStorage": "Nous n'avons pas pu enregistrer le mot de passe sur l'appareil ! Veuillez réessayer.",
    "unableRemovingPasswordFromLocalStorage": "Nous n'avons pas pu supprimer le mot de passe de l'appareil ! Veuillez réessayer.",
    "unableSavingServiceInLocalStorage": "Nous n'avons pas pu enregistrer le service sur l'appareil ! Veuillez réessayer.",
    "unableRemovingServiceFromLocalStorage": "Nous n'avons pas pu supprimer le service de l'appareil ! Veuillez réessayer.",
    "longValue": "Le texte est trop long !",
    "serverError": "Oups ! Quelque chose s'est mal passé sur le serveur. Veuillez réessayer plus tard.",
    "badRequest": "Oups ! La demande était invalide. Veuillez vérifier les informations fournies.",
    "unauthenticated": "Désolé, vous n'êtes pas authentifié pour accéder à cette ressource. Veuillez vous connecter.",
    "unauthorized": "Accès refusé ! Vous n'avez pas les permissions nécessaires pour effectuer cette action.",
    "notFound": "Oups ! La ressource demandée n'a pas été trouvée.",
    "timeout": "La demande a pris trop de temps pour être traitée. Veuillez réessayer plus tard.",
    "canceledRequest": "La demande a été annulée avant de pouvoir être terminée. Veuillez réessayer."
  }
}
